<?xml version="1.0" standalone="no"?>
<!DOCTYPE svg PUBLIC "-//W3C//DTD SVG 1.1//EN" "http://www.w3.org/Graphics/SVG/1.1/DTD/svg11.dtd" >
<svg xmlns="http://www.w3.org/2000/svg">
<metadata>Generated by IcoMoon</metadata>
<defs>
<font id="icomoon" horiz-adv-x="512">
<font-face units-per-em="512" ascent="480" descent="-32" />
<missing-glyph horiz-adv-x="512" />
<glyph unicode="&#x20;" d="" horiz-adv-x="256" />
<glyph unicode="&#xe600;" d="M352 160c-32-32-32-64-64-64s-64 32-96 64-64 64-64 96 32 32 64 64-64 128-96 128-96-96-96-96c0-64 65.75-193.75 128-256s192-128 256-128c0 0 96 64 96 96s-96 128-128 96z" />
<glyph unicode="&#xe601;" d="M282.137 51.2h-205.85v358.4h205.824v-76.8h50.688v76.8c0 28.16-23.014 51.2-51.2 51.2h-204.8c-28.16 0-51.2-23.040-51.2-51.2v-358.4c0-28.16 23.040-51.2 51.2-51.2h204.8c28.185 0 51.2 23.040 51.2 51.2v51.2h-50.663v-51.2zM486.4 217.6l-101.863 99.84v-61.44h-230.4v-76.8h230.4v-61.44l101.863 99.84z" />
<glyph unicode="&#xe602;" d="M435.2 460.8h-230.4c-28.16 0-50.688-23.040-50.688-51.2v-76.8h50.688v76.8h230.4v-358.4h-230.4v51.2h-50.688v-51.2c0-28.16 22.528-51.2 50.688-51.2h230.4c28.16 0 51.2 23.040 51.2 51.2v358.4c0 28.16-23.040 51.2-51.2 51.2zM256 117.76l102.4 99.84-102.4 99.84v-61.44h-230.4v-76.8h230.4v-61.44z" />
</font></defs></svg>