<?xml version="1.0" encoding="iso-8859-1"?>
<!-- Generator: Adobe Illustrator 17.1.0, SVG Export Plug-In . SVG Version: 6.00 Build 0)  -->
<!DOCTYPE svg PUBLIC "-//W3C//DTD SVG 1.1//EN" "http://www.w3.org/Graphics/SVG/1.1/DTD/svg11.dtd">
<svg version="1.1" id="Layer_1" xmlns="http://www.w3.org/2000/svg" xmlns:xlink="http://www.w3.org/1999/xlink" x="0px" y="0px"
	 viewBox="0 0 10.801 10.801" style="enable-background:new 0 0 10.801 10.801;" xml:space="preserve">
<path style="fill:#999999;" d="M9.601,0H4.2C3.552,0,3.024,0.528,3.024,1.2V3H4.2V1.2h5.4v8.401H4.2v-1.2H3.024v1.2
	c0,0.648,0.528,1.2,1.176,1.2h5.4c0.672,0,1.2-0.552,1.2-1.2V1.2C10.801,0.528,10.273,0,9.601,0z M5.4,8.041l2.4-2.352L5.4,3.36V4.8
	H0v1.8h5.4V8.041z"/>
</svg>
