<?xml version="1.0" encoding="utf-8"?>
<!-- Generator: Adobe Illustrator 17.1.0, SVG Export Plug-In . SVG Version: 6.00 Build 0)  -->
<!DOCTYPE svg PUBLIC "-//W3C//DTD SVG 1.1//EN" "http://www.w3.org/Graphics/SVG/1.1/DTD/svg11.dtd">
<svg version="1.1" id="Layer_1" xmlns="http://www.w3.org/2000/svg" xmlns:xlink="http://www.w3.org/1999/xlink" x="0px" y="0px"
	 viewBox="0 0 100 100" enable-background="new 0 0 100 100" xml:space="preserve">
<g>
	<path fill="#FF6633" d="M34.2,62.2c-1.6,1.6-1.6,4.1,0,5.7c1.6,1.6,4.1,1.6,5.7,0c6-6,15.9-6,21.9,0c0.8,0.8,1.8,1.2,2.8,1.2
		c1,0,2-0.4,2.8-1.2c1.6-1.6,1.6-4.1,0-5.7C58.3,53.1,43.4,53.1,34.2,62.2z"/>
	<path fill="#FF6633" d="M23.8,51.8c-1.6,1.6-1.6,4.1,0,5.7c0.8,0.8,1.8,1.2,2.8,1.2s2-0.4,2.8-1.2c11.8-11.8,31-11.8,42.8,0
		c1.6,1.6,4.1,1.6,5.7,0c1.6-1.6,1.6-4.1,0-5.7C63,36.9,38.7,36.9,23.8,51.8z"/>
	<path fill="#FF6633" d="M88.8,40.9c-21-21-55.1-21-76,0c-1.6,1.6-1.6,4.1,0,5.7s4.1,1.6,5.7,0c17.8-17.8,46.9-17.8,64.7,0
		c0.8,0.8,1.8,1.2,2.8,1.2s2-0.4,2.8-1.2C90.4,45,90.4,42.4,88.8,40.9z"/>
	<circle fill="#FF6633" cx="50.8" cy="76" r="4"/>
</g>
</svg>
