<?xml version="1.0" encoding="iso-8859-1"?>
<!-- Generator: Adobe Illustrator 17.1.0, SVG Export Plug-In . SVG Version: 6.00 Build 0)  -->
<!DOCTYPE svg PUBLIC "-//W3C//DTD SVG 1.1//EN" "http://www.w3.org/Graphics/SVG/1.1/DTD/svg11.dtd">
<svg version="1.1" id="Layer_1" xmlns="http://www.w3.org/2000/svg" xmlns:xlink="http://www.w3.org/1999/xlink" x="0px" y="0px"
	 viewBox="0 0 19.363 19.363" style="enable-background:new 0 0 19.363 19.363;" xml:space="preserve">
<path style="fill:#EC663B;" d="M9.681,0l-2.64,7.393H0l5.765,4.313l-2.068,7.657l5.985-4.577l5.985,4.577l-2.068-7.657l5.765-4.313
	h-7.041L9.681,0z"/>
</svg>
