<?xml version="1.0" encoding="utf-8"?>
<!-- Generator: Adobe Illustrator 17.1.0, SVG Export Plug-In . SVG Version: 6.00 Build 0)  -->
<!DOCTYPE svg PUBLIC "-//W3C//DTD SVG 1.1//EN" "http://www.w3.org/Graphics/SVG/1.1/DTD/svg11.dtd">
<svg version="1.1" id="Your_Icon" xmlns="http://www.w3.org/2000/svg" xmlns:xlink="http://www.w3.org/1999/xlink" x="0px" y="0px"
	 viewBox="0 0 100 100" enable-background="new 0 0 100 100" xml:space="preserve">
<path fill="#FF6633" d="M87.1,10.9c-0.9-0.6-1.9-0.9-3-0.9H15.9c-1.1,0-2.2,0.3-3,0.9c-1.4,1-2.4,2.6-2.4,4.5l0,0v52.3v0
	c0,0,0,0,0,0c0,2.4,1.3,5.4,2.9,7l22.2,22.2c1.7,1.7,4.7,2.9,7,2.9h41.4c3,0,5.4-2.4,5.4-5.4V15.4l0,0
	C89.5,13.6,88.6,11.9,87.1,10.9z M37.3,88.3L22.2,73.2h14.1c0.5,0,0.9,0.4,0.9,0.9V88.3z M81,90.6c0,0.5-0.4,0.9-0.9,0.9H46.7
	c-0.5,0-0.9-0.4-0.9-0.9V79.8h24.1c1.8,0,3.2-1.4,3.2-3.2V29c0-1.8-1.4-3.2-3.2-3.2H30.2c-1.8,0-3.2,1.4-3.2,3.2v35.8h-7
	c-0.5,0-0.9-0.4-0.9-0.9c0,0,0,0,0,0V19.4c0-0.4,0.2-0.7,0.6-0.9c0.1,0,0.2-0.1,0.4-0.1h60.1c0.1,0,0.3,0,0.4,0.1
	c0.3,0.1,0.6,0.5,0.6,0.9V90.6z"/>
</svg>
