<?xml version="1.0" encoding="utf-8"?>
<!-- Generator: Adobe Illustrator 17.1.0, SVG Export Plug-In . SVG Version: 6.00 Build 0)  -->
<!DOCTYPE svg PUBLIC "-//W3C//DTD SVG 1.1//EN" "http://www.w3.org/Graphics/SVG/1.1/DTD/svg11.dtd">
<svg version="1.1" id="Layer_1" xmlns="http://www.w3.org/2000/svg" xmlns:xlink="http://www.w3.org/1999/xlink" x="0px" y="0px"
	 viewBox="0 0 100 100" enable-background="new 0 0 100 100" xml:space="preserve">
<g>
	<path fill="#FF6633" d="M28.1,17.6V35H6.3L6.3,71.4l0,0.2l0,0.2c0.5,3.7,5.8,10.6,16.9,10.6l61,0c6.6,0,9.7-6.9,9.7-11.5V17.6H28.1
		z M21.2,76.3c-5.5,0-6.6-4-6.8-5.1l0.1-28h13.6v6h-7v6.1h7v6.1h-7v6.1h7v4l0,0.4C28.1,75.2,23.1,76.3,21.2,76.3z M85.8,71
		c0,0.9-0.3,5.4-5.6,5.4H35.2c1-2.6,1-2.6,1-5V25.7h49.6V71z"/>
	<rect x="42.5" y="36.9" fill="#FF6633" width="37.4" height="6.1"/>
	<rect x="42.5" y="49.2" fill="#FF6633" width="37.4" height="6.1"/>
	<rect x="42.5" y="61.4" fill="#FF6633" width="37.4" height="6.1"/>
</g>
</svg>
